{
  "type":"object",
  "required": [
    "messenger"
  ],
  "properties": {
    "messenger": {
      "oneOf": [
        { "type": "string" },
        { "type": "null" }
      ]
    }
  },
  "additionalProperties": false
}